<svg xmlns="http://www.w3.org/2000/svg" width="65" height="56" viewBox="0 0 65 56">
    <g fill="none" fill-rule="evenodd">
        <circle cx="32" cy="28" r="28" fill="#7B2652" fill-rule="nonzero"/>
        <path fill="#7B2652" d="M61.543 12.665S33.625 22.423 4.327 11.5c0 0-2.903-1.343-3.521.267-.547 1.42-5.882 35.686 30.976 35.412 40.775-.301 33.948-37.881 29.76-34.514"/>
        <path fill="#1F1211" d="M57.77 15.62s-25.525 7.515-51.497-.936c0 0-2.301-.936-2.301.396 0 1.333-4.124 29.182 27.738 28.975 35.667-.228 29.749-31.047 26.06-28.435"/>
        <path fill="#FFFFFE" d="M9.108 19.124l1.571-3.307c17.67 4.607 34.474 2.37 42.402.785l.686 3.798s-29.115 5.456-44.659-1.276"/>
        <path fill="#15100E" d="M31.44 27.48c6.38 0 11.552 2.927 11.552 6.536 0 3.611-5.172 6.536-11.553 6.536-6.38 0-11.552-2.925-11.552-6.536 0-3.609 5.172-6.536 11.552-6.536"/>
        <path fill="#BF3471" d="M19.99 40.286c.18-4.314 3.837-7.21 6.568-7.22 2.732-.011 3.848 1.297 3.848 1.297-1.595 1.252-1.862 2.693-1.862 2.693s1.547-3.468 6.907-3.15c7.569.45 7.437 6.853 7.437 6.853-13.116 3.156-22.898-.473-22.898-.473"/>
        <path fill="#FFFFFE" d="M46.605 41.628c-3.904 1.533-8.821 2.486-14.978 2.525-6.006.039-10.731-.922-14.448-2.51.275-.685.937-1.48 2.524-1.47 2.772.018 11.485 2.307 20.745.168 4.554-1.052 5.802.2 6.157 1.287"/>
        <path fill="#9D9E9A" d="M30.598 50.938c-5.81 0-9.547-2.269-9.547-2.269 3.143.838 6.604 1.098 9.682 1.098 4.985 0 8.965-.68 8.965-.68-3.358 1.378-6.444 1.851-9.1 1.851M32.4 48.55C-.124 48.554.374 22.616.374 22.616s.093.589.36 1.585c1.675 10.21 8.322 22.975 30.61 22.978h.438c18.719-.14 27.408-8.135 30.921-16.421.487-.873.706-1.403.706-1.403S59.916 48.308 32.955 48.55H32.4"/>
        <path fill="#5C1E3E" d="M31.344 47.18C9.056 47.175 2.409 34.411.734 24.2c1.368 5.127 7.337 21.012 29.003 22.422 1.1.073 2.169.108 3.206.108 19.24 0 27.471-11.834 29.76-15.972-3.513 8.286-12.202 16.281-30.92 16.421h-.44m1.711-28.617c-6.815 0-14.511-.694-22.375-2.745l-.064.136a76.995 76.995 0 0 1-4.342-1.27s-.786-.318-1.436-.318c-.466 0-.865.161-.865.715 0 .095-.02.326-.048.673-.311-1.598.913-1.634 1.02-1.634h.009c9.626 3.107 19.157 4.093 27.447 4.093 14.252 0 24.84-2.91 25.94-2.95.02-.003.04-.003.06-.003 1.683 0 1.635 2.588 1.635 2.588a2.588 2.588 0 0 0-.083-.14c-.451-1.4-1.093-2.245-1.723-2.245a.805.805 0 0 0-.459.158s-1.699.502-4.665 1.098l-.024-.116c-4.399.88-11.529 1.96-20.027 1.96"/>
        <path fill="#1B110F" d="M59.952 17.707c-.315-.533-.894-1.357-1.189-1.61a.69.69 0 0 0-.458-.175c-.124 0-.212.035-.212.035-1.152.484-4.833 1.203-4.833 1.203l-.04.21-.115-.652c2.966-.596 4.665-1.098 4.665-1.098a.805.805 0 0 1 .459-.158c.63 0 1.272.845 1.723 2.245m-49.5-1.414c-.997-.234-3.808-.91-4.957-1.339a1.748 1.748 0 0 0-.606-.123c-.913 0-.933 1.073-.933 1.073-.012-.052-.02-.101-.032-.15.028-.348.048-.58.048-.674 0-.554.399-.715.865-.715.65 0 1.436.319 1.436.319 1.451.47 2.899.894 4.342 1.27l-.163.34"/>
        <path fill="#C7C6C1" d="M33.96 19.863c-13.639 0-23.648-2.644-23.648-2.644l.499-.841s-.132-.028-.36-.085l.164-.34.064-.136c7.864 2.05 15.56 2.745 22.375 2.745 8.498 0 15.628-1.08 20.027-1.96l.024.116.115.652-.107.596c-6.72 1.406-13.276 1.897-19.153 1.897"/>
    </g>
</svg>
